{
  "name": "Dream House",
  "floors": [
    {
      "name": "Ground floor",
      "number": 0,
      "rooms": [
        {
          "name": "Garage",
          "devices" : [
            {
              "name": "Bike",
              "id" : 1
            },
            {
              "name": "Light",
              "id": 1
            }
          ],
          "sensors": [{
            "type": "PowerSensor"
          }]
        },
        {
          "name": "Laundry room",
          "devices": [
            {
              "name": "Washing Machine",
              "id": 1
            },
            {
              "name": "Boiler",
              "id": 1
            },
            {
              "name": "Light",
              "id": 1
            }
          ],
          "sensors": [
            {"type" :"PowerSensor"},
            {"type" : "LightSensor"}
          ]
        }
      ]
    },
    {
      "name": "First floor",
      "number": 1,
      "rooms": [
        {
          "name": "Kitchen",
          "devices": [
            {
              "name": "Fridge",
              "id": 1
            },
            {
              "name": "Stove",
              "id": 1
            },
            {
              "name": "Window",
              "id": 1
            },
            {
              "name": "Blinds",
              "id": 1
            },
            {
              "name": "Light",
              "id": 3
            }
          ],
          "sensors" : [
            {"type": "LightSensor"},
            {"type": "PowerSensor"},
            {"type" : "WindSensor"},
            {"type" : "TemperatureSensor"}
          ],
          "entity": {
            "age": 45 ,
            "intelligence": 10,
            "isChild": false,
            "name": "Mom"
          }
        },
        {
          "name": "Dining room",
          "devices": [
            {
              "name": "Coffee Machine",
              "id": 1
            },
            {
              "name": "Window",
              "id": 2
            },
            {
              "name": "Blinds",
              "id": 2
            },
            {
              "name": "Light",
              "id": 4
            }
          ],
          "sensors" : [
            {"type": "LightSensor"},
            {"type": "PowerSensor"},
            {"type" : "WindSensor"},
            {"type" : "TemperatureSensor"}
          ],
          "entity":
            {
              "age": 1,
              "name": "Rexy the dog"
            }
        },
        {
          "name": "Living room",
          "devices": [
            {
              "name": "Radio",
              "id": 1
            },
            {
              "name": "TV",
              "id": 1
            },
            {
              "name": "Window",
              "id": 3
            },
            {
              "name": "Blinds",
              "id": 3
            },
            {
              "name": "Light",
              "id": 5
            }
          ],
          "sensors" : [
            {"type": "LightSensor"},
            {"type": "PowerSensor"},
            {"type" : "WindSensor"},
            {"type" : "TemperatureSensor"}
          ],
          "entity": {
            "age": 17 ,
            "intelligence": 6,
            "isChild": false,
            "name": "Son Teddy"
          }
        }
      ]
    },
    {
      "name": "Second floor",
      "number": 2,
      "rooms": [
        {
          "name": "Master bedroom",
          "devices": [
            {
              "name": "Window",
              "id": 4
            },
            {
              "name": "Blinds",
              "id": 4
            },
            {
              "name": "Light",
              "id": 6
            },
            {
              "name": "Computer",
              "id": 1
            }
          ],
          "sensors" : [
            {"type": "LightSensor"},
            {"type": "PowerSensor"},
            {"type" : "WindSensor"},
            {"type" : "TemperatureSensor"}
          ]
        },
        {
          "name": "Kid's bedroom",
          "devices": [
            {
              "name": "Laptop",
              "id": 1
            },
            {
              "name": "Window",
              "id": 5
            },
            {
              "name": "Blinds",
              "id": 5
            },
            {
              "name": "Light",
              "id": 7
            }
          ],
          "sensors" : [
            {"type": "LightSensor"},
            {"type": "PowerSensor"},
            {"type" : "WindSensor"},
            {"type" : "TemperatureSensor"}
          ]
        },
        {
          "name": "Kid's bedroom 2",
          "devices": [
            {
              "name": "Radio",
              "id": 2
            },
            {
              "name": "Window",
              "id": 6
            },
            {
              "name": "Blinds",
              "id": 6
            },
            {
              "name": "Light",
              "id": 8
            }
          ],
          "sensors" : [
            {"type": "LightSensor"},
            {"type": "PowerSensor"},
            {"type" : "WindSensor"},
            {"type" : "TemperatureSensor"}
          ]
        }
      ]
    }
  ]
}